BST 260 Final Project - District-Level Trends in Postpartum Contraceptive Use in Senegal Following a Contraceptive Supply Chain Intervention
…
## Creating separate data frames with sample of only women who have given birth in 5 yrs preceding survey
d_14 <- senegal_14 |> filter(gave_birth == 1)
d_15 <- senegal_15 |> filter(gave_birth == 1)
d_16 <- senegal_16 |> filter(gave_birth == 1)

## Viewing main variables for this analysis
d_14 |>
  rename(individual_weight=wt, calendar_variable = vcal_1, district = v024) |>
  select(individual_weight, district, calendar_variable)

## # A tibble: 4,584 × 3
##    individual_weight  district calendar_variable                                
##                <dbl> <dbl+lbl> <chr>                                            
##  1              3.19 1 [dakar] "                   0000BPPPPPPPP000000000000000…
##  2              3.19 1 [dakar] "                   PPPPPPP11111100000000BPPPPPP…
##  3              3.19 1 [dakar] "                   00BPPPPPPPP00000000000000000…
##  4              3.19 1 [dakar] "                   PPPP000000000000000000000000…
##  5              3.19 1 [dakar] "                   3333333333333TP00000BPPPPPPP…
##  6              3.19 1 [dakar] "                   1111111111111111111111111111…
##  7              3.19 1 [dakar] "                   1110BPPPPPPPP0011111111100BP…
##  8              3.19 1 [dakar] "                   6666666666666666666666666666…
##  9              3.19 1 [dakar] "                   00000000000000000BPPPPPPPP00…
## 10              3.19 1 [dakar] "                   3333333333330000000000000000…
## # … with 4,574 more rows
…
